fabric_remote_tools: OneLake CRUD Operations
…
df = OneLakeUtils().read_delta_from_fabric_lakehouse(
    file_system_client=file_system_client,
    table_path=table_path,
    engine='duckdb',  # Supported options: 'duckdb', 'polars'
    version=11,  # Optional: specify the version to read
    # row_limit=10  # Optional
)

display(df)

┌──────────────────────┬──────────────┬──────────────────────┬───┬───────────────┬──────┬───────┬───────┐
│       Company        │    Amount    │    Lead investors    │ … │ Date reported │ Day  │ Month │ Year  │
│       varchar        │   varchar    │       varchar        │   │    varchar    │ int8 │ int8  │ int32 │
├──────────────────────┼──────────────┼──────────────────────┼───┼───────────────┼──────┼───────┼───────┤
│ Rapport Therapeutics │ $100,000,000 │ Third Rock Venture…  │ … │ 3/7/23        │    7 │     3 │  2023 │
│ Character.AI         │ $150,000,000 │ Andreessen Horowitz  │ … │ 3/21/23       │   21 │     3 │  2023 │
│ Palmetto             │ $150,000,000 │ TPG Rise Climate     │ … │ 3/6/23        │    6 │     3 │  2023 │
│ Consensus            │ $110,000,000 │ Sumeru Equity Part…  │ … │ 3/8/23        │    8 │     3 │  2023 │
│ Bicara Therapeutics  │ $108,000,000 │ Red Tree Venture C…  │ … │ 3/6/23        │    6 │     3 │  2023 │
│ CARGO Therapeutics   │ $200,000,000 │ Third Rock Venture…  │ … │ 3/1/23        │    1 │     3 │  2023 │
│ Humane               │ $100,000,000 │ Kindred Ventures     │ … │ 3/8/23        │    8 │     3 │  2023 │
│ Rippling             │ $500,000,000 │ Greenoaks            │ … │ 3/17/23       │   17 │     3 │  2023 │
│ Amogy                │ $139,000,000 │ SK Innovation        │ … │ 3/22/23       │   22 │     3 │  2023 │
│ Adept AI             │ $350,000,000 │ General Catalyst, …  │ … │ 3/14/23       │   14 │     3 │  2023 │
│    ·                 │      ·       │  ·                   │ · │    ·          │    · │     · │    ·  │
│    ·                 │      ·       │  ·                   │ · │    ·          │    · │     · │    ·  │
│    ·                 │      ·       │  ·                   │ · │    ·          │    · │     · │    ·  │
│ Harbinger Health     │ $140,000,000 │ n/a                  │ … │ 9/25/23       │   25 │     9 │  2023 │
│ EquipmentShare       │ $150,000,000 │ BDT & MSD Partners   │ … │ 9/13/23       │   13 │     9 │  2023 │
│ PayJoy               │ $150,000,000 │ Warburg Pincus       │ … │ 9/5/23        │    5 │     9 │  2023 │
│ Alto Pharmacy        │ $120,000,000 │ n/a                  │ … │ 9/25/23       │   25 │     9 │  2023 │
│ D-Matrix             │ $110,000,000 │ Temasek              │ … │ 9/6/23        │    6 │     9 │  2023 │
│ Inceptive            │ $100,000,000 │ NVentures, Andrees…  │ … │ 9/7/23        │    7 │     9 │  2023 │
│ Vesper Energy        │ $100,000,000 │ GCM Grosvenor        │ … │ 9/13/23       │   13 │     9 │  2023 │
│ Writer               │ $100,000,000 │ Iconiq Growth        │ … │ 9/18/23       │   18 │     9 │  2023 │
│ Pryon                │ $100,000,000 │ US Innovative Tech…  │ … │ 9/19/23       │   19 │     9 │  2023 │
│ Openly               │ $100,000,000 │ Eden Global Partners │ … │ 9/21/23       │   21 │     9 │  2023 │
├──────────────────────┴──────────────┴──────────────────────┴───┴───────────────┴──────┴───────┴───────┤
│ 342 rows (20 shown)                                                               9 columns (7 shown) │
└───────────────────────────────────────────────────────────────────────────────────────────────────────┘
…
